%YAML 1.1
%TAG !u! tag:unity3d.com,2011:
--- !u!1045 &1
EditorBuildSettings:
  m_ObjectHideFlags: 0
  serializedVersion: 2
  m_Scenes:
  - enabled: 0
    path: Assets/Scenes/SampleScene.unity
    guid: 99c9720ab356a0642a771bea13969a05
  - enabled: 1
    path: Assets/Main.unity
    guid: 8d1f06bdbedef4b3c8b0db1f7389eaf5
  - enabled: 1
    path: Assets/ui.unity
    guid: e496aee4f923c42f4b75690e3db59361
  m_configObjects: {}
